Shiny从入门到入定——12-Tidy evaluation | 了尘兰若的小坑
…
min <- 1
diamonds %>% filter(carat > min)
#> # A tibble: 17,502 × 10
#>   carat cut       color clarity depth table price     x     y     z
#>   <dbl> <ord>     <ord> <ord>   <dbl> <dbl> <int> <dbl> <dbl> <dbl>
#> 1  1.17 Very Good J     I1       60.2    61  2774  6.83  6.9   4.13
#> 2  1.01 Premium   F     I1       61.8    60  2781  6.39  6.36  3.94
#> 3  1.01 Fair      E     I1       64.5    58  2788  6.29  6.21  4.03
#> 4  1.01 Premium   H     SI2      62.7    59  2788  6.31  6.22  3.93
#> 5  1.05 Very Good J     SI2      63.2    56  2789  6.49  6.45  4.09
#> 6  1.05 Fair      J     SI2      65.8    59  2789  6.41  6.27  4.18
#> # … with 17,496 more rows
…
