Shiny从入门到入定——5-工作流 | 了尘兰若的小坑
…
sales <- readr::read_csv("sales-dashboard/sales_data_sample.csv")
sales <- sales[c(
  "TERRITORY", "ORDERDATE", "ORDERNUMBER", "PRODUCTCODE",
  "QUANTITYORDERED", "PRICEEACH"
)]
sales
#> # A tibble: 2,823 × 6
#>   TERRITORY ORDERDATE      ORDERNUMBER PRODUCTCODE QUANTITYORDERED PRICEEACH
#>   <chr>     <chr>                <dbl> <chr>                 <dbl>     <dbl>
#> 1 <NA>      2/24/2003 0:00       10107 S10_1678                 30      95.7
#> 2 EMEA      5/7/2003 0:00        10121 S10_1678                 34      81.4
#> 3 EMEA      7/1/2003 0:00        10134 S10_1678                 41      94.7
#> 4 <NA>      8/25/2003 0:00       10145 S10_1678                 45      83.3
#> # … with 2,819 more rows
…
我想，这是一个八行应用程序，怎么可能会出什么问题？好吧，当我打开应用程序时，无论我选择哪个区域，我都看到了很多缺失的值。最有可能导致问题的代码是选择要显示的数据的 reactive：sales[sales$TERRITORY == input$territory, ]。所以我停止了应用程序，并迅速验证：

1
2
3
4
5
6
7
8
9

sales[sales$TERRITORY == "EMEA", ]
#> # A tibble: 2,481 × 6
#>   TERRITORY ORDERDATE     ORDERNUMBER PRODUCTCODE QUANTITYORDERED PRICEEACH
#>   <chr>     <chr>               <dbl> <chr>                 <dbl>     <dbl>
#> 1 <NA>      <NA>                   NA <NA>                     NA      NA  
#> 2 EMEA      5/7/2003 0:00       10121 S10_1678                 34      81.4
#> 3 EMEA      7/1/2003 0:00       10134 S10_1678                 41      94.7
#> 4 <NA>      <NA>                   NA <NA>                     NA      NA  
#> # … with 2,477 more rows
…
当我通过[使用这些缺失值对sales数据框进行取子集时，这些缺失值就变成了缺失行。输入中的任何缺失值都会保留在输出中。有很多方法可以解决这个问题，但我决定使用 subset()，因为它可以自动删除缺失值并减少我需要键入 sales 的次数。然后我再次检查了它是否真的有效：

1
2
3
4
5
6
7
8
9

subset(sales, TERRITORY == "EMEA")
#> # A tibble: 1,407 × 6
#>   TERRITORY ORDERDATE       ORDERNUMBER PRODUCTCODE QUANTITYORDERED PRICEEACH
#>   <chr>     <chr>                 <dbl> <chr>                 <dbl>     <dbl>
#> 1 EMEA      5/7/2003 0:00         10121 S10_1678                 34      81.4
#> 2 EMEA      7/1/2003 0:00         10134 S10_1678                 41      94.7
#> 3 EMEA      11/11/2003 0:00       10180 S10_1678                 29      86.1
#> 4 EMEA      11/18/2003 0:00       10188 S10_1678                 48     100  
#> # … with 1,403 more rows
…
head(sales$TERRITORY %in% NA, 25)
#>  [1]  TRUE FALSE FALSE  TRUE  TRUE  TRUE FALSE FALSE  TRUE FALSE FALSE  TRUE
#> [13]  TRUE  TRUE FALSE  TRUE FALSE FALSE  TRUE  TRUE FALSE FALSE FALSE  TRUE
#> [25] FALSE
subset(sales, TERRITORY %in% NA)
#> # A tibble: 1,074 × 6
#>   TERRITORY ORDERDATE       ORDERNUMBER PRODUCTCODE QUANTITYORDERED PRICEEACH
#>   <chr>     <chr>                 <dbl> <chr>                 <dbl>     <dbl>
#> 1 <NA>      2/24/2003 0:00        10107 S10_1678                 30      95.7
#> 2 <NA>      8/25/2003 0:00        10145 S10_1678                 45      83.3
#> 3 <NA>      10/10/2003 0:00       10159 S10_1678                 49     100  
#> 4 <NA>      10/28/2003 0:00       10168 S10_1678                 36      96.7
#> # … with 1,070 more rows
…
