Shiny从入门到入定——10-动态UI | 了尘兰若的小坑
…
sales <- vroom::vroom("sales-dashboard/sales_data_sample.csv", col_types = list(), na = "")
sales %>% 
  select(TERRITORY, CUSTOMERNAME, ORDERNUMBER, everything()) %>%
  arrange(ORDERNUMBER)
#> # A tibble: 2,823 × 25
#>    TERRITORY CUSTOM…¹ ORDER…² QUANT…³ PRICE…⁴ ORDER…⁵ SALES ORDER…⁶ STATUS QTR_ID
#>    <chr>     <chr>      <dbl>   <dbl>   <dbl>   <dbl> <dbl> <chr>   <chr>   <dbl>
#>  1 NA        Online …   10100      30   100         3 5151  1/6/20… Shipp…      1
#>  2 NA        Online …   10100      50    67.8       2 3390  1/6/20… Shipp…      1
#>  3 NA        Online …   10100      22    86.5       4 1903. 1/6/20… Shipp…      1
#>  4 NA        Online …   10100      49    34.5       1 1689. 1/6/20… Shipp…      1
#>  5 EMEA      Blauer …   10101      25   100         4 3782  1/9/20… Shipp…      1
#>  6 EMEA      Blauer …   10101      26   100         1 3773. 1/9/20… Shipp…      1
#>  7 EMEA      Blauer …   10101      45    31.2       3 1404  1/9/20… Shipp…      1
#>  8 EMEA      Blauer …   10101      46    53.8       2 2473. 1/9/20… Shipp…      1
#>  9 NA        Vitachr…   10102      39   100         2 4808. 1/10/2… Shipp…      1
#> 10 NA        Vitachr…   10102      41    50.1       1 2056. 1/10/2… Shipp…      1
#> # … with 2,813 more rows, 15 more variables: MONTH_ID <dbl>, YEAR_ID <dbl>,
#> #   PRODUCTLINE <chr>, MSRP <dbl>, PRODUCTCODE <chr>, PHONE <chr>,
#> #   ADDRESSLINE1 <chr>, ADDRESSLINE2 <chr>, CITY <chr>, STATE <chr>,
#> #   POSTALCODE <chr>, COUNTRY <chr>, CONTACTLASTNAME <chr>,
#> #   CONTACTFIRSTNAME <chr>, DEALSIZE <chr>, and abbreviated variable names
#> #   ¹​CUSTOMERNAME, ²​ORDERNUMBER, ³​QUANTITYORDERED, ⁴​PRICEEACH, ⁵​ORDERLINENUMBER,
#> #   ⁶​ORDERDATE
…
